<svg width="2500" height="467" viewBox="0 0 2500 467" fill="none" xmlns="http://www.w3.org/2000/svg">
<g filter="url(#filter0_di)">
<path d="M379.471 -1.90735e-05V355H310.971V203.5H149.971V355H80.9707V-1.90735e-05H149.971V143.5H310.971V-1.90735e-05H379.471ZM515.018 360C502.351 360 490.518 358 479.518 354C468.518 349.667 459.018 343.833 451.018 336.5C443.018 328.833 436.684 320 432.018 310C427.684 300 425.518 289 425.518 277C425.518 264.667 428.184 253.333 433.518 243C439.184 232.333 446.851 223.333 456.518 216C466.518 208.667 478.351 203 492.018 199C505.684 194.667 520.684 192.5 537.018 192.5C548.684 192.5 560.018 193.5 571.018 195.5C582.351 197.5 592.351 200.333 601.018 204V189C601.018 171.667 596.018 158.333 586.018 149C576.351 139.667 561.851 135 542.518 135C528.518 135 514.851 137.5 501.518 142.5C488.184 147.5 474.518 154.833 460.518 164.5L440.018 122C473.684 99.6666 510.018 88.5 549.018 88.5C586.684 88.5 615.851 97.8333 636.518 116.5C657.518 134.833 668.018 161.5 668.018 196.5V278C668.018 285 669.184 290 671.518 293C674.184 296 678.351 297.667 684.018 298V355C672.684 357.333 662.851 358.5 654.518 358.5C641.851 358.5 632.018 355.667 625.018 350C618.351 344.333 614.184 336.833 612.518 327.5L611.018 313C599.351 328.333 585.184 340 568.518 348C551.851 356 534.018 360 515.018 360ZM534.018 311C545.351 311 556.018 309 566.018 305C576.351 301 584.351 295.667 590.018 289C597.351 283.333 601.018 277 601.018 270V240C593.018 237 584.351 234.667 575.018 233C565.684 231 556.684 230 548.018 230C530.684 230 516.518 234 505.518 242C494.518 249.667 489.018 259.5 489.018 271.5C489.018 282.833 493.351 292.333 502.018 300C510.684 307.333 521.351 311 534.018 311ZM712.604 224C712.604 205.667 715.77 188.333 722.104 172C728.437 155.667 737.604 141.333 749.604 129C761.604 116.667 776.104 106.833 793.104 99.5C810.104 92.1666 829.27 88.5 850.604 88.5C879.27 88.5 903.604 94.6666 923.604 107C943.937 119.333 959.104 135.5 969.104 155.5L903.604 175.5C897.937 165.833 890.437 158.5 881.104 153.5C871.77 148.167 861.437 145.5 850.104 145.5C840.437 145.5 831.437 147.5 823.104 151.5C814.77 155.167 807.437 160.5 801.104 167.5C795.104 174.167 790.27 182.333 786.604 192C783.27 201.667 781.604 212.333 781.604 224C781.604 235.667 783.437 246.333 787.104 256C790.77 265.667 795.604 274 801.604 281C807.937 288 815.27 293.5 823.604 297.5C831.937 301.167 840.77 303 850.104 303C862.104 303 873.104 300 883.104 294C893.437 288 900.604 280.667 904.604 272L970.104 292C961.104 312 946.27 328.333 925.604 341C904.937 353.667 880.104 360 851.104 360C829.77 360 810.604 356.333 793.604 349C776.604 341.667 762.104 331.833 750.104 319.5C738.104 306.833 728.77 292.333 722.104 276C715.77 259.333 712.604 242 712.604 224ZM978.912 298C988.579 297.333 996.412 295.333 1002.41 292C1008.75 288.667 1013.91 282.5 1017.91 273.5C1022.25 264.5 1025.75 252.167 1028.41 236.5C1031.41 220.5 1034.41 199.667 1037.41 174L1046.41 93H1229.91V355H1163.41V149H1104.91L1099.91 188.5C1095.91 221.5 1091.08 248.833 1085.41 270.5C1079.75 291.833 1072.41 308.833 1063.41 321.5C1054.75 334.167 1043.91 343.167 1030.91 348.5C1017.91 353.5 1001.91 356.333 982.912 357L978.912 298ZM1411.03 360C1390.03 360 1371.03 356.5 1354.03 349.5C1337.03 342.167 1322.53 332.333 1310.53 320C1298.53 307.667 1289.2 293.333 1282.53 277C1276.2 260.667 1273.03 243.5 1273.03 225.5C1273.03 206.833 1276.2 189.333 1282.53 173C1288.87 156.333 1298.03 141.833 1310.03 129.5C1322.03 116.833 1336.53 106.833 1353.53 99.5C1370.87 92.1666 1390.2 88.5 1411.53 88.5C1432.87 88.5 1451.87 92.1666 1468.53 99.5C1485.53 106.833 1499.87 116.667 1511.53 129C1523.53 141.333 1532.53 155.667 1538.53 172C1544.87 188.333 1548.03 205.333 1548.03 223C1548.03 227.333 1547.87 231.5 1547.53 235.5C1547.53 239.5 1547.2 242.833 1546.53 245.5H1344.03C1345.03 255.833 1347.53 265 1351.53 273C1355.53 281 1360.7 287.833 1367.03 293.5C1373.37 299.167 1380.53 303.5 1388.53 306.5C1396.53 309.5 1404.87 311 1413.53 311C1426.87 311 1439.37 307.833 1451.03 301.5C1463.03 294.833 1471.2 286.167 1475.53 275.5L1533.03 291.5C1523.37 311.5 1507.87 328 1486.53 341C1465.53 353.667 1440.37 360 1411.03 360ZM1479.03 202C1477.37 182.333 1470.03 166.667 1457.03 155C1444.37 143 1428.87 137 1410.53 137C1401.53 137 1393.03 138.667 1385.03 142C1377.37 145 1370.53 149.333 1364.53 155C1358.53 160.667 1353.53 167.5 1349.53 175.5C1345.87 183.5 1343.7 192.333 1343.03 202H1479.03ZM1555.54 297H1569.54C1577.54 296 1584.04 293.5 1589.04 289.5C1594.37 285.167 1598.87 278.5 1602.54 269.5C1606.54 260.167 1609.7 247.833 1612.04 232.5C1614.7 217.167 1617.37 197.667 1620.04 174L1629.04 93H1812.54V297H1847.54V430H1788.04V355H1613.04V430H1555.54V297ZM1746.04 297V149H1687.54L1682.54 188.5C1679.2 215.5 1675.04 237.5 1670.04 254.5C1665.37 271.5 1659.37 285.667 1652.04 297H1746.04ZM1957.99 259.5L2081.99 93H2131.49V355H2064.99V193L1942.49 355H1891.49V93H1957.99V259.5ZM2312.71 360C2291.71 360 2272.71 356.5 2255.71 349.5C2238.71 342.167 2224.21 332.333 2212.21 320C2200.21 307.667 2190.88 293.333 2184.21 277C2177.88 260.667 2174.71 243.5 2174.71 225.5C2174.71 206.833 2177.88 189.333 2184.21 173C2190.55 156.333 2199.71 141.833 2211.71 129.5C2223.71 116.833 2238.21 106.833 2255.21 99.5C2272.55 92.1666 2291.88 88.5 2313.21 88.5C2334.55 88.5 2353.55 92.1666 2370.21 99.5C2387.21 106.833 2401.55 116.667 2413.21 129C2425.21 141.333 2434.21 155.667 2440.21 172C2446.55 188.333 2449.71 205.333 2449.71 223C2449.71 227.333 2449.55 231.5 2449.21 235.5C2449.21 239.5 2448.88 242.833 2448.21 245.5H2245.71C2246.71 255.833 2249.21 265 2253.21 273C2257.21 281 2262.38 287.833 2268.71 293.5C2275.05 299.167 2282.21 303.5 2290.21 306.5C2298.21 309.5 2306.55 311 2315.21 311C2328.55 311 2341.05 307.833 2352.71 301.5C2364.71 294.833 2372.88 286.167 2377.21 275.5L2434.71 291.5C2425.05 311.5 2409.55 328 2388.21 341C2367.21 353.667 2342.05 360 2312.71 360ZM2380.71 202C2379.05 182.333 2371.71 166.667 2358.71 155C2346.05 143 2330.55 137 2312.21 137C2303.21 137 2294.71 138.667 2286.71 142C2279.05 145 2272.21 149.333 2266.21 155C2260.21 160.667 2255.21 167.5 2251.21 175.5C2247.55 183.5 2245.38 192.333 2244.71 202H2380.71Z" fill="#7B7B7B"/>
</g>
<defs>
<filter id="filter0_di" x="65.9707" y="-3.05176e-05" width="2398.74" height="467" filterUnits="userSpaceOnUse" color-interpolation-filters="sRGB">
<feFlood flood-opacity="0" result="BackgroundImageFix"/>
<feColorMatrix in="SourceAlpha" type="matrix" values="0 0 0 0 0 0 0 0 0 0 0 0 0 0 0 0 0 0 127 0"/>
<feOffset dy="22"/>
<feGaussianBlur stdDeviation="7.5"/>
<feColorMatrix type="matrix" values="0 0 0 0 0 0 0 0 0 0 0 0 0 0 0 0 0 0 0.15 0"/>
<feBlend mode="normal" in2="BackgroundImageFix" result="effect1_dropShadow"/>
<feBlend mode="normal" in="SourceGraphic" in2="effect1_dropShadow" result="shape"/>
<feColorMatrix in="SourceAlpha" type="matrix" values="0 0 0 0 0 0 0 0 0 0 0 0 0 0 0 0 0 0 127 0" result="hardAlpha"/>
<feOffset dy="20"/>
<feGaussianBlur stdDeviation="15"/>
<feComposite in2="hardAlpha" operator="arithmetic" k2="-1" k3="1"/>
<feColorMatrix type="matrix" values="0 0 0 0 0.270833 0 0 0 0 0.270833 0 0 0 0 0.270833 0 0 0 0.66 0"/>
<feBlend mode="normal" in2="shape" result="effect2_innerShadow"/>
</filter>
</defs>
</svg>
